…
Infelizmente, o dplyr nĂŁo possui uma forma tĂŁo conveniente de tratar esses casos. A [recomendaĂ§ĂŁo semioficial](https://github.com/tidyverse/dplyr/issues/631) Ă© usar vĂˇrios `ifelse`s:

``` r
library(dplyr)

flights %>%
  mutate(
    month = ifelse(month == 1 & day == 1, 7, month),
    day = ifelse(month == 1 & day == 1, 7, day)
  ) %>%
  select(month, day)
#> # A tibble: 336,776 x 2
#>    month   day
#>    <dbl> <int>
#>  1     7     1
#>  2     7     1
#>  3     7     1
#>  4     7     1
#>  5     7     1
#>  6     7     1
#>  7     7     1
#>  8     7     1
#>  9     7     1
#> 10     7     1
#> # ... with 336,766 more rows
```
…
Ă© executada, os valores em `month` jĂˇ foram modificados para 7 (onde foi o caso), a condiĂ§ĂŁo falha e os valores armazenados em `day` nĂŁo sĂŁo alterados. No entanto, um workaround Ă© possĂ­vel: podemos criar uma coluna temporĂˇria para armazenar o resultado da condiĂ§ĂŁo do ifelse e apagĂˇ-la depois das modificaĂ§Ăµes:

``` r
flights %>%
  mutate(
    condicao = month == 1 & day == 1,
    month = ifelse(condicao, 7, month),
    day = ifelse(condicao, 7, day),
    condicao = NULL
  ) %>%
  select(month, day)
#> # A tibble: 336,776 x 2
#>    month   day
#>    <dbl> <dbl>
#>  1     7     7
#>  2     7     7
#>  3     7     7
#>  4     7     7
#>  5     7     7
#>  6     7     7
#>  7     7     7
#>  8     7     7
#>  9     7     7
#> 10     7     7
#> # ... with 336,766 more rows
```
…
Criando o verbo `transform_where`
---------------------------------

A soluĂ§ĂŁo que desenvolvi para essa situaĂ§ĂŁo foi o verbo `transform_where`. Aqui estĂˇ um exemplo do seu funcionamento:

``` r
flights %>%
  transform_where(
    month == 1 & day == 1,
    month = 7,
    day = 7
  ) %>%
  select(month, day)
#> # A tibble: 336,776 x 2
#>    month   day
#>    <dbl> <dbl>
#>  1     7     7
#>  2     7     7
#>  3     7     7
#>  4     7     7
#>  5     7     7
#>  6     7     7
#>  7     7     7
#>  8     7     7
#>  9     7     7
#> 10     7     7
#> # ... with 336,766 more rows
```
…
